2	MA34	6648.65	6648.65	1.27	829.88
6	MA30	2614.35	2614.35	1.54	920.74
6	MA38	83634.13	83634.13	2.44	912.27
19	MA32	73762.89	73762.89	1.64	588.08
19	MA34	2620.63	2620.63	0.32	635.86
19	MA35	8210.64	8210.64	1.05	712.36
19	MA38	253231.93	253231.93	2.66	772.53
19	MA42	708.63	708.63	0.32	867.51
29	ALPI	589.69	589.69	0.05	682.3
29	MA08	435.14	435.14	1.12	931.66
29	MA22	289.35	289.35	0.6	817.83
55	SNID	182.85	182.85	0.46	827.31
55	MA31	7523.02	7523.02	1.71	948.82
66	MA19	162.61	162.61	0.81	996.94
104	JANU	5969.83	5969.83	1.48	717.41
105	ZAPO	532.47	532.47	0.44	938.2
118	SNID	24947.71	24947.71	0.9	524.92
121	SANM	7031.76	7031.76	0.04	318.55
135	ESPN	15866.45	15866.45	2.18	928.73
135	MA31	43185.79	43185.79	1.45	816.89
138	MA22	2033.27	2033.27	1.74	936.2
150	MA08	2986.5	2986.5	1.2	987.96
155	MA19	115.26	115.26	0.06	917.36
162	MA02	30803.93	30803.93	1.43	678.3
165	MA02	10678.19	10678.19	0.08	654.07
167	MA35	353207.15	353207.15	2.21	821.06
169	MA08	19067.44	19067.44	0.52	898.2
176	MA32	4081.72	4081.72	0.73	823.75
178	MORA	44575.69	44575.69	1.46	680.41
178	ZAPO	438.59	438.59	0.12	974.9
178	MA47	30855.82	30855.82	0.46	622.41
179	MA47	682.09	682.09	0.54	940.42
182	MA05	3840.92	3840.92	2.16	875.78
189	MA04	898.92	898.92	0.4	780.44
191	MA04	190.97	190.97	0.63	995.37
196	MA08	42.61	42.61	0.11	976.24
203	MA40	39580.93	39580.93	0.56	614.84
203	MA42	410137.25	410137.25	1.39	663.79
206	MA42	915.68	915.68	0.15	753.03
207	MA05	525.27	525.27	0.52	880.1
207	MA08	6754.59	6754.59	1.57	905.63
215	MA46	2979.38	2979.38	0.9	754.16
221	MA04	8511.99	8511.99	0.47	781.86
232	MA08	34.4	34.4	0.14	928.94
233	MA22	1336.75	1336.75	0.63	894.97
235	MA14	11957.18	11957.18	0.48	622.57
235	MA53	4.554402712e7	4.554402751e7	1.4	305.4
238	MA30	689.57	689.57	1.16	838.41
238	MA34	233.95	233.95	0.81	998.02
242	MA43	6187.03	6187.03	0.13	678.19
242	MA55	1922.38	1922.38	0.04	591.09
244	MA08	9572.21	9572.21	1.72	985.55
245	MA26	3482.54	3482.54	0.34	783.62
255	MA30	148.69	148.69	0.34	902.46
256	MA14	35330.5	35330.5	0.26	612.19
258	MA30	677.39	677.39	0.74	889.67
258	MA34	4191.7	4191.7	1.01	831.33
259	MA32	2934.99	2934.99	0.4	822.13
259	MA43	16903.9	16903.9	0.03	716.99
260	MA34	50020.09	50020.09	1.99	910.76
271	COLM	2.97478184e6	2.97478181e6	0.05	425.72
271	MA26	12819.59	12819.59	1.32	958.64
272	MA26	1022.11	1022.11	0.24	855.15
274	MA32	3957.14	3957.14	0.57	700.64
274	MA36	119.38	119.38	0.46	955.89
280	MA05	12570.91	12570.91	0.14	549.22
285	MA26	1.74061957e6	1.74061956e6	1.25	523.94
295	MA18	5.39674006e6	5.39674006e6	0.49	253.65
297	MA18	782.59	782.59	0.32	848.43
297	MA50	1239.0	1239.0	1.09	974.61
299	MA50	356.16	356.16	0.07	925.06
299	MA53	307753.73	307753.73	0.13	415.12
301	MA17	2.719156369e7	2.719156369e7	1.4	341.55
302	MA18	3473.4	3473.4	1.1	573.28
308	MA42	198757.5	198757.5	2.6	885.71
312	MA30	500.0	500.0	1.08	954.13
320	MA17	7223.85	7223.85	0.1	606.38
321	MA18	79090.3	79090.3	0.18	341.31
324	MA18	37840.67	37840.67	1.88	633.76
325	MA18	12894.73	12894.73	0.25	481.42
326	MA17	154945.59	154945.59	1.25	617.36
330	MA50	169.92	169.92	0.21	863.47
339	MA31	1444.97	1444.97	0.11	805.41
343	MA18	1.97609128e6	1.97609128e6	1.14	278.73
344	MA18	4018.12	4018.12	0.72	503.1
356	MA17	2764.93	2764.93	0.28	628.31
356	MA23	6488.38	6488.38	1.12	786.88
358	MA50	1560.87	1560.87	1.11	949.07
361	MA18	8527.75	8527.75	2.14	711.3
370	MA17	6.9623040826e8	6.9623040826e8	2.5	303.75
386	MA17	6167.45	6167.45	0.56	777.27
397	MA08	1658.38	1658.38	0.42	934.73
397	MA09	1.14012859e6	1.1401286e6	1.8	537.52
402	MA25	7618.45	7618.45	2.41	986.98
403	MA40	189613.7	189613.7	0.18	272.89
404	MA40	647.09	647.09	0.31	620.59
404	MA54	9084.72	9084.72	0.11	478.12
407	MA26	3683.08	3683.08	1.1	856.58
415	MA54	1276.86	1276.86	0.27	757.13
417	MA54	2.136373636e7	2.136373637e7	0.48	265.78
429	MA31	93760.43	93760.43	2.38	968.22
429	MA32	1798.76	1798.76	0.34	691.43
434	MA30	3716.7	3716.7	0.74	554.16
435	MA08	70.99	70.99	0.22	965.75
438	MA18	5.22876699e6	5.22876699e6	0.43	249.42
445	MA14	163.06	163.06	0.67	944.68
445	MA50	1936.78	1936.78	1.93	983.06
449	MA47	248.96	248.96	0.05	992.4
455	MA30	1879.84	1879.84	1.55	624.88
456	MA18	327.03	327.03	0.05	928.25
459	MAZE	42.6	42.6	0.14	997.29
469	MA02	8306.37	8306.37	1.25	747.13
469	MA26	32754.34	32754.34	2.13	964.85
469	MA31	3519.09	3519.09	0.96	945.14
473	MA06	6991.96	6991.96	0.08	815.51
477	MA37	47.88	47.88	0.38	963.69
482	MA50	875.89	875.89	0.68	753.46
483	MA22	146.75	146.75	0.48	897.72
483	MA51	533.97	533.97	0.8	987.39
484	MA35	868640.3	868640.3	2.84	915.3
486	MA25	1537.94	1537.94	1.14	992.92
488	MA25	2469.15	2469.15	2.16	915.11
492	MA06	416.54	416.54	0.52	909.12
492	MA08	22506.13	22506.13	0.39	462.1
492	MA50	3809.76	3809.76	1.58	901.17
493	MA40	197.53	197.53	0.41	990.61
494	MA30	98.65	98.65	0.54	929.57
501	MA30	354.09	354.09	0.65	888.54
502	MA01	155531.39	155531.39	1.81	849.81
502	MA02	14546.12	14546.12	1.47	894.74
502	MA30	1076.66	1076.66	0.05	643.02
503	MA02	151590.27	151590.27	2.95	960.79
511	MA36	1908.49	1908.49	1.28	938.36
514	ALPI	12010.56	12010.56	0.62	802.07
514	SNID	9979.62	9979.62	0.51	712.77
514	MA23	1214.45	1214.45	0.12	959.91
514	MA40	1.36443583e6	1.36443583e6	1.99	589.47
514	MA48	1.22073856e6	1.22073856e6	2.68	882.33
516	MA18	1578.46	1578.46	1.51	768.9
516	MA22	829.18	829.18	0.74	665.64
517	MA25	2010.31	2010.31	1.97	959.96
520	MA41	376.86	376.86	0.05	755.52
520	MA47	1083.83	1083.83	0.37	806.69
524	MA30	2142.01	2142.01	0.81	575.66
526	MA40	211.48	211.48	0.25	857.27
529	MA35	712.49	712.49	0.12	832.14
531	MA46	147.69	147.69	0.14	938.84
535	MA11	91.61	91.61	0.09	891.1
536	MA30	353.26	353.26	0.08	557.1
541	MA08	3265.41	3265.41	0.39	940.29
543	MA04	4611.39	4611.39	0.99	742.2
544	MA02	26066.03	26066.03	0.24	465.35
544	MA02	26066.03	26066.03	0.24	465.35
546	MA08	31199.1	31199.1	2.16	770.38
547	MA37	6770.48	6770.48	0.75	599.29
547	MA43	12208.9	12208.9	1.2	905.42
553	MA30	1867.18	1867.18	0.53	651.15
559	MA30	27850.2	27850.2	2.63	878.74
559	MA38	127119.21	127119.21	2.44	882.02
570	MA25	288.08	288.08	0.09	766.19
570	MA31	41017.68	41017.68	0.77	592.33
570	MA36	1239.29	1239.29	0.9	820.24
571	MA53	106204.88	106204.88	1.62	582.5
572	MA02	122625.37	122625.37	0.85	578.02
574	MA31	355270.74	355270.75	1.84	796.57
574	MA35	7150.28	7150.28	0.67	892.14
576	MA51	13688.32	13688.32	1.56	959.34
579	MA06	178.96	178.96	0.19	943.04
581	MA02	487.85	487.85	0.02	962.43
582	MA35	1401.68	1401.68	0.24	886.49
586	MA30	10816.53	10816.53	1.4	923.57
587	MA30	1604.34	1604.34	0.27	558.02
592	MA19	9266.74	9266.74	0.46	716.92
597	MA14	159.83	159.83	0.21	989.51
597	MA30	2053.91	2053.91	0.8	754.38
598	MA36	1993.4	1993.4	1.19	892.25
602	MA34	30683.08	30683.08	2.94	913.62
603	SINN	527.62	527.62	0.04	734.51
603	MA02	1913.6	1913.6	0.24	711.29
604	COMA	1714.73	1714.73	1.49	930.4
606	MA30	1216.24	1216.24	1.34	812.18
606	MA46	4587.77	4587.77	0.07	555.23
606	MA47	56115.91	56115.91	2.45	880.15
613	SCRI	983.0	983.0	0.23	862.09
615	MA05	1018.47	1018.47	0.08	652.44
615	MA19	568.79	568.79	0.76	969.74
618	MA45	1212.61	1212.61	0.16	979.36
619	MA25	3407.81	3407.81	2.13	909.14
620	MA35	1486.23	1486.23	0.68	854.91
626	MA14	343.99	343.99	0.73	922.49
626	MA26	399.73	399.73	0.37	886.87
635	MA31	1.88184987e6	1.88184986e6	2.52	527.67
635	MA42	3476.28	3476.28	0.43	668.93
640	MA47	150969.51	150969.51	0.45	452.08
644	MA19	1742.09	1742.09	0.34	674.7
646	MA34	6455.7	6455.7	1.21	799.2
646	MA43	7729.05	7729.05	0.61	787.38
647	MA11	20150.44	20150.44	2.22	910.27
647	MA50	422.54	422.54	0.34	900.25
652	MA37	8703.59	8703.59	0.18	527.26
652	MA38	6571.89	6571.89	0.92	920.81
653	MA50	419.37	419.37	0.86	715.29
655	MA46	17868.48	17868.48	0.27	797.41
656	MA37	24189.52	24189.52	0.62	558.25
658	MA53	445867.92	445867.92	2.55	810.85
659	MA11	1204.69	1204.69	0.56	719.08
665	MA07	8602.82	8602.82	0.71	899.95
667	MA05	5551.55	5551.55	1.06	695.47
671	MA45	418778.75	418778.75	0.7	358.3
687	MA02	9895.73	9895.73	1.69	818.01
689	MA06	29951.04	29951.04	1.41	579.89
691	MA09	7963.6	7963.6	0.86	848.26
693	MA50	572.28	572.28	0.38	908.16
701	MA14	13309.1	13309.1	1.42	712.23
701	MA30	442.31	442.31	0.8	820.72
703	MA25	28598.95	28598.95	2.47	739.38
706	SCRI	2414.42	2414.42	0.17	810.48
706	MA30	3807.38	3807.38	0.19	614.23
706	MA35	1117.36	1117.36	0.16	877.01
710	MA15	15723.41	15723.41	0.64	532.07
710	MA18	4.65991315e6	4.65991315e6	1.07	285.93
710	MA50	766.14	766.14	1.1	905.95
714	MA31	10652.61	10652.61	0.85	640.19
717	BAVA	53551.66	53551.66	1.93	878.08
717	COLM	334991.51	334991.51	0.68	373.72
717	COMA	2181.24	2181.24	0.82	674.07
717	ESPN	23395.15	23394.79	2.22	819.57
717	MA19	27545.81	27545.81	1.31	663.85
717	MA34	37433.78	37433.78	0.74	545.3
719	MA34	1239.32	1239.32	1.41	946.58
719	MA35	693.06	693.06	0.79	854.18
723	MA51	562.54	562.54	0.17	827.21
724	MA01	10108.28	10108.28	0.52	789.02
724	MA25	361161.64	361161.64	2.95	807.48
728	MA05	199.99	199.99	0.13	907.27
732	MA19	693.81	693.81	0.45	784.36
732	MA30	173.0	173.0	0.15	763.12
735	MA02	76738.62	76738.62	1.69	799.07
738	MA04	2747.88	2747.88	1.0	988.01
738	MA31	4270.86	4270.86	0.11	749.8
743	MA53	738.92	738.92	0.07	912.72
748	MA04	1294.73	1294.73	0.58	714.28
749	MAZE	133.49	133.49	0.3	690.65
749	MA04	3698.74	3698.74	0.53	573.57
757	MA25	166.73	166.73	0.03	632.34
758	MA30	441.27	441.27	0.76	750.68
758	MA46	544.07	544.07	0.21	789.95
763	MA07	1977.67	1977.67	1.64	928.0
765	MA22	272665.41	272665.41	2.19	671.97
765	MA26	41465.49	41465.49	1.73	806.96
778	MA25	97.13	97.13	0.02	841.58
780	MA19	890.37	890.37	0.62	957.18
801	MA25	2818.88	2818.88	0.76	680.83
807	MA25	22653.27	22653.27	1.64	688.9
807	MA44	60083.82	60083.82	2.33	857.79
807	MA47	4621.84	4621.84	0.78	849.65
812	MA04	90.25	90.25	0.11	999.3
812	MA05	102.61	102.61	0.23	887.66
815	MA02	76216.56	76216.56	0.83	796.17
817	MA11	1849.6	1849.6	0.7	948.38
819	MA19	29544.92	29544.92	2.43	761.66
821	MA11	5461.5	5461.5	1.35	873.85
